{
  "project_name": "My blog",
  "project_slug": "{{ cookiecutter.project_name.lower().replace(' ', '_').replace('-', '_') }}",
  "site_url": "https://example.com/{{cookiecutter.project_slug}}",
  "author": "My name",
  "timezone": "UTC",
  "_copy_without_render":
    [
      "templates/*",
      "*.html",
      "data/robots.txt"
    ]
}
